<?xml version="1.0" encoding="utf-8"?>
<!-- Generator: Adobe Illustrator 22.0.1, SVG Export Plug-In . SVG Version: 6.00 Build 0)  -->
<svg version="1.1" xmlns="http://www.w3.org/2000/svg" xmlns:xlink="http://www.w3.org/1999/xlink" x="0px" y="0px"
	 viewBox="0 0 500 500" style="enable-background:new 0 0 500 500;" xml:space="preserve">
<g id="Layer_1">
</g>
<g id="Calque_2">
	<path d="M380.4,251.7l-60.3-24.3l-46.8-17.6V-8.8L317.9,0l44.8,27l36.8,43.9l28.7-24.1L387.4-1.9l-55.8-33.6L273.3-47v-56h-37.5v57
		l-44.7,5.1l-53,30.9L98.3,30.8L80.4,92.9l14.3,55.4l40.7,47.5l50,20.8l50.6,19v231.4l-46.4-8l-47.9-33.5l-36.4-58.3L73.4,387
		l40.4,64.8l61,42.7l61.1,10.5v55.4h37.5v-57.1l44.7-4.8l66.5-39.6l41.5-57.7l13.4-56.9L422,295.3L380.4,251.7z M199.1,181.8
		L158,164.6l-29.2-34.1l-9.6-37.1l12.5-43.2l29.8-30.4l41.8-24.4l32.6-3.7v203.9L199.1,181.8z M391.2,385.5l-32.6,45.3l-52.8,31.4
		l-32.6,3.5V249.8l33.2,12.5l52.4,21.2l30.5,31.9l11,31.2L391.2,385.5z"/>
</g>
</svg>
