<?xml version="1.0" encoding="utf-8"?>
<!-- Generator: Adobe Illustrator 22.0.1, SVG Export Plug-In . SVG Version: 6.00 Build 0)  -->
<svg version="1.1" xmlns="http://www.w3.org/2000/svg" xmlns:xlink="http://www.w3.org/1999/xlink" x="0px" y="0px"
	 viewBox="0 0 500 500" style="enable-background:new 0 0 500 500;" xml:space="preserve">
<g id="Layer_1">
</g>
<g id="Calque_2">
	<polygon points="267.4,-20.3 214.7,-91 184.7,-68.6 234.5,-1.6 267,76.8 291,189.1 291,289.7 266.7,401.6 236.2,480.7 184.3,555.4 
		215.1,576.8 269.5,498.3 302.2,413.8 328.4,293.7 328.4,185.2 303.3,67.3 	"/>
</g>
</svg>
