<?xml version="1.0" encoding="utf-8"?>
<!-- Generator: Adobe Illustrator 22.0.1, SVG Export Plug-In . SVG Version: 6.00 Build 0)  -->
<svg version="1.1" xmlns="http://www.w3.org/2000/svg" xmlns:xlink="http://www.w3.org/1999/xlink" x="0px" y="0px"
	 viewBox="0 0 500 500" style="enable-background:new 0 0 500 500;" xml:space="preserve">
<g id="Layer_1">
</g>
<g id="Calque_2">
	<polygon points="259,442.2 240.3,442.2 225.2,453.2 219.4,471 225.2,488.8 240.3,499.7 259,499.7 274.1,488.8 279.9,471 
		274.1,453.2 	"/>
	<polygon points="354,-31.1 287.2,-53.9 209.5,-53.9 151.8,-32.5 111.4,3.7 86.9,45.3 77.6,111.1 114.7,116.3 123,57.9 140.7,27.7 
		171.5,0.2 216.3,-16.4 281,-16.4 332.8,1.2 365,36.7 384,85.8 378,130.8 359.5,162.5 263.9,221.3 230.9,274.6 230.9,370 268.4,370 
		268.4,285.2 291.1,248.6 387.1,189.5 414.2,143.2 422.4,81.2 397.5,16.6 	"/>
</g>
</svg>
