<?xml version="1.0" encoding="utf-8"?>
<!-- Generator: Adobe Illustrator 22.0.1, SVG Export Plug-In . SVG Version: 6.00 Build 0)  -->
<svg version="1.1" xmlns="http://www.w3.org/2000/svg" xmlns:xlink="http://www.w3.org/1999/xlink" x="0px" y="0px"
	 viewBox="0 0 500 500" style="enable-background:new 0 0 500 500;" xml:space="preserve">
<g id="Layer_1">
</g>
<g id="Calque_2">
	<polygon points="404,-64.3 256.4,198.3 108.7,-64.3 76.1,-46 212.9,197.5 154,197.5 154,234.9 234,234.9 237.6,241.5 237.6,275.1 
		154,275.1 154,312.6 237.6,312.6 237.6,487 275.1,487 275.1,312.6 358.7,312.6 358.7,275.1 275.1,275.1 275.1,241.5 278.8,234.9 
		358.7,234.9 358.7,197.5 299.8,197.5 436.7,-46 	"/>
</g>
</svg>
