<?xml version="1.0" encoding="utf-8"?>
<!-- Generator: Adobe Illustrator 22.0.1, SVG Export Plug-In . SVG Version: 6.00 Build 0)  -->
<svg version="1.1" xmlns="http://www.w3.org/2000/svg" xmlns:xlink="http://www.w3.org/1999/xlink" x="0px" y="0px"
	 viewBox="0 0 500 500" style="enable-background:new 0 0 500 500;" xml:space="preserve">
<g id="Layer_1">
</g>
<g id="Calque_2">
	<path d="M361.4,183.7L299.6,153l-81.8-3.9L144,176.8L109.7,203v-90l14.1-52.6l41.8-51.9l60.6-25.4h65l51.7,27.5l24.4,36.5
		l31.2-20.8L368.8-18l-68.2-36.3h-81.9l-76.3,31.9L89.6,43.1l-17.4,65v237.7l11.4,64.6l34.6,60.6l59.5,35l72.7,11.1l80.3-16.9
		l62.8-51.3l30.8-70.5l3.3-76.5L407,236.7L361.4,183.7z M387.3,369.8l-24.4,55.8l-48.8,39.9l-64.7,13.6l-58.9-9l-44.7-26.3
		l-26.5-46.4l-9.6-53.3v-94l52.6-40.1l61.4-23.1L290,190l48,23.8l35.7,41.5L390,307L387.3,369.8z"/>
</g>
</svg>
