<?xml version="1.0" encoding="utf-8"?>
<!-- Generator: Adobe Illustrator 22.0.1, SVG Export Plug-In . SVG Version: 6.00 Build 0)  -->
<svg version="1.1" xmlns="http://www.w3.org/2000/svg" xmlns:xlink="http://www.w3.org/1999/xlink" x="0px" y="0px"
	 viewBox="0 0 500 500" style="enable-background:new 0 0 500 500;" xml:space="preserve">
<g id="Layer_1">
</g>
<g id="Calque_2">
	<path d="M409.7,281.5l-38.8-38.6l-42.7-31.6l-40.2-23l34.6-19.7l42-35.2l22.1-43.1l2.2-49.4l-23-48.6l-35-30.8l-42.5-17.3L250-60.5
		l-38.3,4.6l-42.5,17.3l-35,30.8l-23,48.6l2.2,49.4l22.1,43.1l39.1,33.2l37.4,21.7L173.7,210l-42.4,31l-40.9,40.5l-20.1,49.4
		l-4.5,51.5L80,436.5l41.7,44.5l58.6,27.5L250,517l69.7-8.5l58.6-27.5l41.7-44.5l14.3-54.1l-4.5-51.5L409.7,281.5z M197.6,136.8
		l-32.1-27.2l-15-29.2L149,48.4l15.7-33.2l24.4-21.5l32-13l28.8-3.5l28.8,3.5l32,13l24.4,21.5L351,48.4l-1.4,31.9l-15,29.2
		l-32.1,27.2L250,166.6L197.6,136.8z M386.2,417.8l-30.3,32.4L309.2,472l-59.2,7.2l-59.2-7.2l-46.6-21.9l-30.3-32.4l-10.2-38.6
		l3.4-39.4l15.1-37.1l32.4-32.3l38.6-28.3l56.9-32.3l56.9,32.3l38.6,28.3l32.4,32.3l15.1,37.1l3.4,39.4L386.2,417.8z"/>
</g>
</svg>
