<?xml version="1.0" encoding="utf-8"?>
<!-- Generator: Adobe Illustrator 22.0.0, SVG Export Plug-In . SVG Version: 6.00 Build 0)  -->
<svg version="1.1" id="Calque_1" xmlns="http://www.w3.org/2000/svg" xmlns:xlink="http://www.w3.org/1999/xlink" x="0px" y="0px"
	 viewBox="0 0 500 500" style="enable-background:new 0 0 500 500;" xml:space="preserve">
<g id="Layer_1">
	<path d="M217.3,499.9H79.7V-50.2l132.9,0.1l64.5,5.9l63.6,31l47.9,49l31.4,69.7l12.6,75.9l-0.2,85.5l-11,68.4l-31.3,72.3
		l-47.3,49.3L285.5,490L217.3,499.9z M117.2,462.5h97.4L273,454l46.5-26.9l39-40.6l26.8-61.8l10-62.3v-79.5L384,116.5l-26.7-59.3
		l-38.8-39.6L266.9-7.6l-56.8-5.2h-92.9C117.2-12.8,117.2,462.5,117.2,462.5z"/>
</g>
<g id="Calque_2_1_">
</g>
</svg>
