<?xml version="1.0" encoding="utf-8"?>
<!-- Generator: Adobe Illustrator 22.0.0, SVG Export Plug-In . SVG Version: 6.00 Build 0)  -->
<svg version="1.1" xmlns="http://www.w3.org/2000/svg" xmlns:xlink="http://www.w3.org/1999/xlink" x="0px" y="0px"
	 viewBox="0 0 500 500" style="enable-background:new 0 0 500 500;" xml:space="preserve">
<g id="Layer_1">
	<polygon points="399.7,508.4 428.2,484.1 197.6,214.4 427.7,-33.8 400.2,-59.3 117.3,245.9 117.3,-46.5 79.8,-46.5 79.8,500 
		117.3,500 117.3,301 171.9,242.1 	"/>
</g>
<g id="Calque_2">
</g>
</svg>
