<?xml version="1.0" encoding="utf-8"?>
<!-- Generator: Adobe Illustrator 22.0.1, SVG Export Plug-In . SVG Version: 6.00 Build 0)  -->
<svg version="1.1" xmlns="http://www.w3.org/2000/svg" xmlns:xlink="http://www.w3.org/1999/xlink" x="0px" y="0px"
	 viewBox="0 0 500 500" style="enable-background:new 0 0 500 500;" xml:space="preserve">
<g id="Layer_1">
</g>
<g id="Calque_2">
	<polygon points="383.4,339.3 375.7,391.8 349.8,432 312.8,459 250,471.2 187.2,459 150.2,432 124.3,391.8 116.6,339.3 116.6,-43.5 
		79.1,-43.5 79.1,340.7 88.5,405.3 122.5,458.2 171.9,494.2 250,509.3 328.1,494.2 377.5,458.2 411.5,405.3 420.9,342.1 
		420.9,-43.5 383.4,-43.5 	"/>
	<polygon points="289.9,-59.9 305.5,-94 250,-119.5 202.1,-158.4 178.5,-129.3 230.1,-87.4 	"/>
</g>
</svg>
