<?xml version="1.0" encoding="utf-8"?>
<!-- Generator: Adobe Illustrator 22.0.1, SVG Export Plug-In . SVG Version: 6.00 Build 0)  -->
<svg version="1.1" xmlns="http://www.w3.org/2000/svg" xmlns:xlink="http://www.w3.org/1999/xlink" x="0px" y="0px"
	 viewBox="0 0 500 500" style="enable-background:new 0 0 500 500;" xml:space="preserve">
<g id="Layer_1">
	<polygon points="245.9,-52.8 228.5,-52.8 214.3,-42.5 208.9,-25.9 214.3,-9.3 228.5,1 245.9,1 260,-9.3 265.4,-25.9 260,-42.5 	"/>
	<polygon points="325.9,513.7 249.2,483.4 218.4,400.2 218.4,122.2 84.1,122.2 84.1,84.7 255.9,84.7 255.9,393.5 278.6,454.7 
		329,474.7 372.6,465 409.6,433.7 433.8,462.2 389.8,499.6 	"/>
</g>
<g id="Layer_2">
</g>
</svg>
