<?xml version="1.0" encoding="utf-8"?>
<!-- Generator: Adobe Illustrator 22.0.1, SVG Export Plug-In . SVG Version: 6.00 Build 0)  -->
<svg version="1.1" xmlns="http://www.w3.org/2000/svg" xmlns:xlink="http://www.w3.org/1999/xlink" x="0px" y="0px"
	 viewBox="0 0 500 500" style="enable-background:new 0 0 500 500;" xml:space="preserve">
<g id="Layer_1">
</g>
<g id="Calque_2">
	<path d="M260.7,516.2l-70.3-14.1l-52.6-39.6l-37-57l-15-72.4v-65.6l13.5-58.9l30.3-56.2l46.8-42.4l57.3-22.3h51.8l50.4,17.2
		l46.3,36.4l31.1,49.1l13.5,60v68.7H123.3v10.1l12.8,61.8l29.6,45.6l40.5,30.5l55,11.1l52.5-9.2l40.3-20.5l36.6-36.1l26.3,26.7
		L376,479.1l-50.5,25.7L260.7,516.2z M123.3,281.6h266.1v-27.1l-11.1-49.6l-24.2-38.2l-36.2-28.5l-38.5-13.1h-38.6l-44.3,17.3
		l-36.9,33.4l-24.8,46.1l-11.4,49.8V281.6z"/>
	<polygon points="309.8,45.9 250,18.4 198.4,-23.5 222,-52.6 269.9,-13.7 325.4,11.8 	"/>
</g>
</svg>
